#set terminal x11

##how to do an ewma in gnuplot???
##set output "/tmp/foo.pdf"
##filename = '/tmp/foo.txt'
##filename = '<cat'


plot filename u "adcValue" w l,\
filename u "High" w l,\
filename u "Middle" w l,\
filename u "Low" w l,\
filename u "Noise" w l
pause -1